4 Cleaning data | Data Cleaning and Wrangling
…
adding and removing columns

converting character columns to factors

We’ll do these the tidyverse [🙄] way, using pipes (%>%), since we’re going to use the dplyr package and most of the examples you’ll find in the wild do so. Note that even using pipes, if you don’t write the result to an object (often overwriting the one that you feed into the pipe), it will be ephemeral. So, drennan6.1b <- drennan6.1b %>% is more likely to be useful than just drennan6.1b %>%.

4.1 Column/variable management

4.1.1 Removing columns with select()

Unless we’ve specified which cells we want with the range = argument when reading in the sheet, Table 6.1b has some extraneous columns produced because R detected text outside of the first four and expanded the range accordingly.

drennan6.1b %>% select(Site:Unincised)

## # A tibble: 140 × 4
##    Site          Unit  Incised Unincised
##    <chr>         <chr>   <dbl>     <dbl>
##  1 Oak Grove     OG-29      31        86
##  2 Maple Knoll   MK-13      21        81
##  3 Cypress Swamp CS-40      43        84
##  4 Cypress Swamp CS-38      35        97
##  5 Cypress Swamp CS-12      29        87
##  6 Cypress Swamp CS-37      17        96
##  7 Cypress Swamp CS-19      37       115
##  8 Oak Grove     OG-42      39       111
##  9 Oak Grove     OG-4       25       101
## 10 Maple Knoll   MK-26      14        94
## # ℹ 130 more rows

#or the inverse
drennan6.1b <- drennan6.1b %>% select(-c(`...5`, `...6`, `...7`)) 
#where column names have punctuation, enclose them in ``

4.1.2 Changing column classes and adding columns with mutate()

The mutate() function can be used to modify existing columns by simply overwriting them.

drennan6.1b %>% mutate(Site = factor(Site), Unit = factor(Unit))

## # A tibble: 140 × 4
##    Site          Unit  Incised Unincised
##    <fct>         <fct>   <dbl>     <dbl>
##  1 Oak Grove     OG-29      31        86
##  2 Maple Knoll   MK-13      21        81
##  3 Cypress Swamp CS-40      43        84
##  4 Cypress Swamp CS-38      35        97
##  5 Cypress Swamp CS-12      29        87
##  6 Cypress Swamp CS-37      17        96
##  7 Cypress Swamp CS-19      37       115
##  8 Oak Grove     OG-42      39       111
##  9 Oak Grove     OG-4       25       101
## 10 Maple Knoll   MK-26      14        94
## # ℹ 130 more rows
…
