4 Wrangling data | Cleaning & Wrangling Data
…
## # A tibble: 3 × 3
##   Site          Period           `Area (ha)`
##   <chr>         <chr>                  <dbl>
## 1 Oak Grove     Middle Formative         2.2
## 2 Maple Knoll   Middle Formative         2.9
## 3 Cypress Swamp Late Formative           4.1

drennan6.1b %>% mutate(Period = case_when(
  Site == "Oak Grove" ~ "Middle Formative",
  Site == "Maple Knoll" ~ "Middle Formative",
  Site == "Cypress Swamp" ~ "Late Formative"
))

## # A tibble: 140 × 6
##    Site          Unit  Incised Unincised PropIncised Period          
##    <fct>         <fct>   <dbl>     <dbl>       <dbl> <chr>           
##  1 Oak Grove     OG-29      31        86       0.265 Middle Formative
##  2 Maple Knoll   MK-13      21        81       0.206 Middle Formative
##  3 Cypress Swamp CS-40      43        84       0.339 Late Formative  
##  4 Cypress Swamp CS-38      35        97       0.265 Late Formative  
##  5 Cypress Swamp CS-12      29        87       0.25  Late Formative  
##  6 Cypress Swamp CS-37      17        96       0.150 Late Formative  
##  7 Cypress Swamp CS-19      37       115       0.243 Late Formative  
##  8 Oak Grove     OG-42      39       111       0.26  Middle Formative
##  9 Oak Grove     OG-4       25       101       0.198 Middle Formative
## 10 Maple Knoll   MK-26      14        94       0.130 Middle Formative
## # ℹ 130 more rows

#repeat for area
drennan6.1b %>% mutate(Area = case_when(
  Site == "Oak Grove" ~ 2.2, #numeric so shouldn't be in ""
  Site == "Maple Knoll" ~ 2.9,
  Site == "Cypress Swamp" ~ 4.1
))

## # A tibble: 140 × 6
##    Site          Unit  Incised Unincised PropIncised  Area
##    <fct>         <fct>   <dbl>     <dbl>       <dbl> <dbl>
##  1 Oak Grove     OG-29      31        86       0.265   2.2
##  2 Maple Knoll   MK-13      21        81       0.206   2.9
##  3 Cypress Swamp CS-40      43        84       0.339   4.1
##  4 Cypress Swamp CS-38      35        97       0.265   4.1
##  5 Cypress Swamp CS-12      29        87       0.25    4.1
##  6 Cypress Swamp CS-37      17        96       0.150   4.1
##  7 Cypress Swamp CS-19      37       115       0.243   4.1
##  8 Oak Grove     OG-42      39       111       0.26    2.2
##  9 Oak Grove     OG-4       25       101       0.198   2.2
## 10 Maple Knoll   MK-26      14        94       0.130   2.9
## # ℹ 130 more rows

#can also combine these
drennan6.1b %>% mutate(
  Period = case_when(
  Site == "Oak Grove" ~ "Middle Formative",
  Site == "Maple Knoll" ~ "Middle Formative",
  Site == "Cypress Swamp" ~ "Late Formative"),
  Area = case_when(
  Site == "Oak Grove" ~ 2.2, #numeric so shouldn't be in ""
  Site == "Maple Knoll" ~ 2.9,
  Site == "Cypress Swamp" ~ 4.1
))

## # A tibble: 140 × 7
##    Site          Unit  Incised Unincised PropIncised Period            Area
##    <fct>         <fct>   <dbl>     <dbl>       <dbl> <chr>            <dbl>
##  1 Oak Grove     OG-29      31        86       0.265 Middle Formative   2.2
##  2 Maple Knoll   MK-13      21        81       0.206 Middle Formative   2.9
##  3 Cypress Swamp CS-40      43        84       0.339 Late Formative     4.1
##  4 Cypress Swamp CS-38      35        97       0.265 Late Formative     4.1
##  5 Cypress Swamp CS-12      29        87       0.25  Late Formative     4.1
##  6 Cypress Swamp CS-37      17        96       0.150 Late Formative     4.1
##  7 Cypress Swamp CS-19      37       115       0.243 Late Formative     4.1
##  8 Oak Grove     OG-42      39       111       0.26  Middle Formative   2.2
##  9 Oak Grove     OG-4       25       101       0.198 Middle Formative   2.2
## 10 Maple Knoll   MK-26      14        94       0.130 Middle Formative   2.9
## # ℹ 130 more rows

4.2 left_join()

Note that, as above, without a <- we are not saving our new, improved object. Not to worry - we’ll produce it again - more efficiently - and save that. To do so we’ll use a join, which updates one table based on information in another, using shared values to define a relationship. There are multiple types of joins (inner/outer, left/right/full) that can be carried out in various ways (see ?join), and their implementation can get tricky. We’ll use a left join (left_join()), which takes the first table (‘x’), and searches a second table (‘y’) for matching values in shared (or specified) columns. That is, if both x and y have a column z, left_join() searches x$z, and if a value of "a" is present in both x$z and y$z, it takes whatever other information is in that row of y and appends it to the matching row in x. That’s probably hard to follow in the abstract, but have a look at how it works:

drennan6.1b %>% left_join(drennan6.1b_2, by = "Site")

## # A tibble: 140 × 7
##    Site          Unit  Incised Unincised PropIncised Period          `Area (ha)`
##    <chr>         <fct>   <dbl>     <dbl>       <dbl> <chr>                 <dbl>
##  1 Oak Grove     OG-29      31        86       0.265 Middle Formati…         2.2
##  2 Maple Knoll   MK-13      21        81       0.206 Middle Formati…         2.9
##  3 Cypress Swamp CS-40      43        84       0.339 Late Formative          4.1
##  4 Cypress Swamp CS-38      35        97       0.265 Late Formative          4.1
##  5 Cypress Swamp CS-12      29        87       0.25  Late Formative          4.1
##  6 Cypress Swamp CS-37      17        96       0.150 Late Formative          4.1
##  7 Cypress Swamp CS-19      37       115       0.243 Late Formative          4.1
##  8 Oak Grove     OG-42      39       111       0.26  Middle Formati…         2.2
##  9 Oak Grove     OG-4       25       101       0.198 Middle Formati…         2.2
## 10 Maple Knoll   MK-26      14        94       0.130 Middle Formati…         2.9
## # ℹ 130 more rows

#if we don't specify `by=`, `left_join()` will guess based on column names
drennan6.1b <- drennan6.1b %>% left_join(drennan6.1b_2)

4.3 separate()

Suppose that we sometimes want to lump all of these sites as belonging to the Formative Period, and other times we want to separate according to whether they’re Middle Formative or Late Formative? This would be simpler if we had a ‘Period’ column and a second ‘Subperiod’ column. There’s a convenient function for this is the tidyr package (another of the tendrils of the tidyverse).

library(tidyr)
drennan6.1b %>% separate(Period, into = c("Subperiod", "Period"), sep = " ")

## # A tibble: 140 × 8
##    Site         Unit  Incised Unincised PropIncised Subperiod Period `Area (ha)`
##    <chr>        <fct>   <dbl>     <dbl>       <dbl> <chr>     <chr>        <dbl>
##  1 Oak Grove    OG-29      31        86       0.265 Middle    Forma…         2.2
##  2 Maple Knoll  MK-13      21        81       0.206 Middle    Forma…         2.9
##  3 Cypress Swa… CS-40      43        84       0.339 Late      Forma…         4.1
##  4 Cypress Swa… CS-38      35        97       0.265 Late      Forma…         4.1
##  5 Cypress Swa… CS-12      29        87       0.25  Late      Forma…         4.1
##  6 Cypress Swa… CS-37      17        96       0.150 Late      Forma…         4.1
##  7 Cypress Swa… CS-19      37       115       0.243 Late      Forma…         4.1
##  8 Oak Grove    OG-42      39       111       0.26  Middle    Forma…         2.2
##  9 Oak Grove    OG-4       25       101       0.198 Middle    Forma…         2.2
## 10 Maple Knoll  MK-26      14        94       0.130 Middle    Forma…         2.9
## # ℹ 130 more rows
…
These data are of interest because Eerkens and colleagues argue that obsidians that are more and less difficult to procure will not only be more and less common, but also differently represented amongst different kinds of artifacts. These data are, however, in a form that is inconvenient, and in a way that can’t be addressed by simple summary. We could more easily make sense of a table that has, instead of one row for each unique combination of site and source, one row for each site, a column for each source, and a distance in each cell. Moving between these options is commonly called pivoting a table. The tidyverse functions for this are pivot_longer() and pivot_wider(), from the tidyr package. The pivot vocabulary and syntax are often incomprehensible, but it’s possible to follow the examples in the vignette that accompanies the package (try vignette("pivot"); many packages include demos [“vignettes”] that are often more obviously helpful than the abstracted info provided by ?).

library(tidyr)

eerk_dist_summ <- eerk_dist %>% pivot_wider(names_from = Source, 
                                            values_from = `Euclidean Distance`)

Let’s reverse the process, just to see pivot_longer() in action. Here we tell the function to do this with every column except the first one, put the column names in a new column called ‘Source’, and put the values associated with each combination of site and source in a new column called ‘Distance’.

eerk_dist_summ %>% pivot_longer(cols = !Site, 
                                names_to = "Source",
                                values_to = "Distance")

## # A tibble: 87 × 3
##    Site      Source              Distance
##    <chr>     <chr>                  <dbl>
##  1 Bone Cave Bodie Hills              670
##  2 Bone Cave Napa Glass Mountain      620
##  3 Bone Cave Borax Lake               580
##  4 Bone Cave Buffalo Hills            380
##  5 Bone Cave BS/PP/FM                 370
##  6 Bone Cave South Warners            350
##  7 Bone Cave Buck Mountain            270
##  8 Bone Cave Cowhead Lake             260
##  9 Bone Cave GF/LIW/RS                280
## 10 Bone Cave Cougar Butte             270
## # ℹ 77 more rows
…
